{{0,255},{0,255},{0,255},}
{{127},{127},{127},}
  <clip duration="10.35" durinms="90" folder="jake_FINAL/clips/BshootsB_cut/" frames="115" height="240" name="BshootsB_cut" prefix="BshootsB_cut" sound="jake_FINAL/sound/BshootsB_cut.aiff" suffix=".png" type="CachedImageClip" videoname="videos/jake_FINAL/BshootsB_cut.mov" width="320"/>
