{{0,255},{0,255},{0,255},}
{{127},{127},{127},}
  <clip duration="4.86" durinms="90" folder="jake_FINAL/clips/SH2_1/" frames="54" height="240" name="SH2_1" prefix="SH2_1" sound="jake_FINAL/sound/SH2_1.aiff" suffix=".png" type="CachedImageClip" videoname="videos/jake_FINAL/SH2_1.mov" width="320"/>
