{{0,255},{0,255},{0,255},}
{{127},{127},{127},}
  <clip duration="16.74" durinms="90" folder="jake_FINAL/clips/BshootsB2/" frames="186" height="240" name="BshootsB2" prefix="BshootsB2" sound="jake_FINAL/sound/BshootsB2.aiff" suffix=".png" type="CachedImageClip" videoname="videos/jake_FINAL/BshootsB2.mov" width="320"/>
